{
    "fakerate_vs_$TRKTAG_pt" : {
        "type" : "TEfficiency",
        "xAxis" : { "title" : "$TRKTYPE p_{T} [GeV]", "nBins" : "100", "low" : "0.0", "high" : "100.0" },
        "yAxis" : { "title" : "Fake rate" }
    },
    "fakerate_vs_$TRKTAG_eta" : {
        "type" : "TEfficiency",
        "xAxis" : { "title" : "$TRKTYPE #eta", "nBins" : "100", "low" : "-$ETAMAX", "high" : "$ETAMAX" },
        "yAxis" : { "title" : "Fake rate" }
    },
    "fakerate_vs_$TRKTAG_phi" : {
        "type" : "TEfficiency",
        "xAxis" : { "title" : "$TRKTYPE #phi", "nBins" : "100", "low" : "-$PI", "high" : "$PI" },
        "yAxis" : { "title" : "Fake rate" }
    },
    "fakerate_vs_$TRKTAG_d0" : {
        "type" : "TEfficiency",
        "xAxis" : { "title" : "$TRKTYPE d_{0}", "nBins" : "100", "low" : "-$D0MAX", "high" : "$D0MAX" },
        "yAxis" : { "title" : "Fake rate" }
    },
    "fakerate_vs_$TRKTAG_z0" : {
        "type" : "TEfficiency",
        "xAxis" : { "title" : "$TRKTYPE z_{0}", "nBins" : "100", "low" : "-$Z0MAX", "high" : "$Z0MAX" },
        "yAxis" : { "title" : "Fake rate" }
    }
}
